{
  "variables": {
          "GCP_PROJECT_ID": "{{env `GCP_PROJECT_ID`}}",
          "IMAGE_SUFFIX": "{{env `IMAGE_SUFFIX`}}"
  },
  "builders": [
    {
      "type": "googlecompute",
      "account_file": "account.json",
      "project_id": "{{user `GCP_PROJECT_ID`}}",
      "source_image_family": "coreos-stable",
      "source_image": "coreos-stable-2023-4-0-v20190226",
      "image_family": "basic-builder",
      "image_name": "basic-builder-{{user `IMAGE_SUFFIX`}}",
      "zone": "us-central1-a",
      "ssh_username": "core",
      "disk_size": "10",
      "state_timeout": "15m"
    }
  ],
  "provisioners": [
    {
      "type": "shell",
      "script": "provisioner-basic.sh"
    }
  ]
}
